%YAML 1.1
%TAG !u! tag:unity3d.com,2011:
--- !u!1 &36329037283355694
GameObject:
  m_ObjectHideFlags: 0
  m_CorrespondingSourceObject: {fileID: 0}
  m_PrefabInstance: {fileID: 0}
  m_PrefabAsset: {fileID: 0}
  serializedVersion: 6
  m_Component:
  - component: {fileID: 6672557949979840516}
  - component: {fileID: 5134184340288070318}
  m_Layer: 0
  m_Name: Leaves
  m_TagString: Untagged
  m_Icon: {fileID: 0}
  m_NavMeshLayer: 0
  m_StaticEditorFlags: 0
  m_IsActive: 1
--- !u!4 &6672557949979840516
Transform:
  m_ObjectHideFlags: 0
  m_CorrespondingSourceObject: {fileID: 0}
  m_PrefabInstance: {fileID: 0}
  m_PrefabAsset: {fileID: 0}
  m_GameObject: {fileID: 36329037283355694}
  m_LocalRotation: {x: 0, y: 0, z: 0, w: 1}
  m_LocalPosition: {x: -1.94, y: 0.35, z: 0}
  m_LocalScale: {x: 0.71, y: 0.71, z: 0.71}
  m_Children: []
  m_Father: {fileID: 6648315016917905327}
  m_RootOrder: 0
  m_LocalEulerAnglesHint: {x: 0, y: 0, z: 0}
--- !u!212 &5134184340288070318
SpriteRenderer:
  m_ObjectHideFlags: 0
  m_CorrespondingSourceObject: {fileID: 0}
  m_PrefabInstance: {fileID: 0}
  m_PrefabAsset: {fileID: 0}
  m_GameObject: {fileID: 36329037283355694}
  m_Enabled: 1
  m_CastShadows: 0
  m_ReceiveShadows: 0
  m_DynamicOccludee: 1
  m_MotionVectors: 1
  m_LightProbeUsage: 1
  m_ReflectionProbeUsage: 1
  m_RayTracingMode: 0
  m_RayTraceProcedural: 0
  m_RenderingLayerMask: 1
  m_RendererPriority: 0
  m_Materials:
  - {fileID: 10754, guid: 0000000000000000f000000000000000, type: 0}
  m_StaticBatchInfo:
    firstSubMesh: 0
    subMeshCount: 0
  m_StaticBatchRoot: {fileID: 0}
  m_ProbeAnchor: {fileID: 0}
  m_LightProbeVolumeOverride: {fileID: 0}
  m_ScaleInLightmap: 1
  m_ReceiveGI: 1
  m_PreserveUVs: 0
  m_IgnoreNormalsForChartDetection: 0
  m_ImportantGI: 0
  m_StitchLightmapSeams: 1
  m_SelectedEditorRenderState: 0
  m_MinimumChartSize: 4
  m_AutoUVMaxDistance: 0.5
  m_AutoUVMaxAngle: 89
  m_LightmapParameters: {fileID: 0}
  m_SortingLayerID: -1634192651
  m_SortingLayer: 5
  m_SortingOrder: 2
  m_Sprite: {fileID: 3818217323743452925, guid: 4fe67a8414474cf4b8e39fa485af8ca0, type: 3}
  m_Color: {r: 1, g: 1, b: 1, a: 1}
  m_FlipX: 0
  m_FlipY: 0
  m_DrawMode: 0
  m_Size: {x: 4.58, y: 2.4600492}
  m_AdaptiveModeThreshold: 0.5
  m_SpriteTileMode: 0
  m_WasSpriteAssigned: 1
  m_MaskInteraction: 0
  m_SpriteSortPoint: 0
--- !u!1001 &8588119375998836375
PrefabInstance:
  m_ObjectHideFlags: 0
  serializedVersion: 2
  m_Modification:
    m_TransformParent: {fileID: 0}
    m_Modifications:
    - target: {fileID: 3129067545056129336, guid: b99a55ad986e69c4e9a403699273607e, type: 3}
      propertyPath: m_RootOrder
      value: 0
      objectReference: {fileID: 0}
    - target: {fileID: 3129067545056129336, guid: b99a55ad986e69c4e9a403699273607e, type: 3}
      propertyPath: m_LocalPosition.x
      value: -1.76
      objectReference: {fileID: 0}
    - target: {fileID: 3129067545056129336, guid: b99a55ad986e69c4e9a403699273607e, type: 3}
      propertyPath: m_LocalPosition.y
      value: -5.14
      objectReference: {fileID: 0}
    - target: {fileID: 3129067545056129336, guid: b99a55ad986e69c4e9a403699273607e, type: 3}
      propertyPath: m_LocalPosition.z
      value: 0
      objectReference: {fileID: 0}
    - target: {fileID: 3129067545056129336, guid: b99a55ad986e69c4e9a403699273607e, type: 3}
      propertyPath: m_LocalRotation.w
      value: 1
      objectReference: {fileID: 0}
    - target: {fileID: 3129067545056129336, guid: b99a55ad986e69c4e9a403699273607e, type: 3}
      propertyPath: m_LocalRotation.x
      value: 0
      objectReference: {fileID: 0}
    - target: {fileID: 3129067545056129336, guid: b99a55ad986e69c4e9a403699273607e, type: 3}
      propertyPath: m_LocalRotation.y
      value: 0
      objectReference: {fileID: 0}
    - target: {fileID: 3129067545056129336, guid: b99a55ad986e69c4e9a403699273607e, type: 3}
      propertyPath: m_LocalRotation.z
      value: 0
      objectReference: {fileID: 0}
    - target: {fileID: 3129067545056129336, guid: b99a55ad986e69c4e9a403699273607e, type: 3}
      propertyPath: m_LocalEulerAnglesHint.x
      value: 0
      objectReference: {fileID: 0}
    - target: {fileID: 3129067545056129336, guid: b99a55ad986e69c4e9a403699273607e, type: 3}
      propertyPath: m_LocalEulerAnglesHint.y
      value: 0
      objectReference: {fileID: 0}
    - target: {fileID: 3129067545056129336, guid: b99a55ad986e69c4e9a403699273607e, type: 3}
      propertyPath: m_LocalEulerAnglesHint.z
      value: 0
      objectReference: {fileID: 0}
    - target: {fileID: 6693901710976815257, guid: b99a55ad986e69c4e9a403699273607e, type: 3}
      propertyPath: m_Name
      value: Branch (1) Variant
      objectReference: {fileID: 0}
    m_RemovedComponents: []
  m_SourcePrefab: {fileID: 100100000, guid: b99a55ad986e69c4e9a403699273607e, type: 3}
--- !u!4 &6648315016917905327 stripped
Transform:
  m_CorrespondingSourceObject: {fileID: 3129067545056129336, guid: b99a55ad986e69c4e9a403699273607e, type: 3}
  m_PrefabInstance: {fileID: 8588119375998836375}
  m_PrefabAsset: {fileID: 0}
