%YAML 1.1
%TAG !u! tag:unity3d.com,2011:
--- !u!74 &7400000
AnimationClip:
  m_ObjectHideFlags: 0
  m_CorrespondingSourceObject: {fileID: 0}
  m_PrefabInstance: {fileID: 0}
  m_PrefabAsset: {fileID: 0}
  m_Name: Stork
  serializedVersion: 6
  m_Legacy: 0
  m_Compressed: 0
  m_UseHighQualityCurve: 1
  m_RotationCurves: []
  m_CompressedRotationCurves: []
  m_EulerCurves: []
  m_PositionCurves:
  - curve:
      serializedVersion: 2
      m_Curve:
      - serializedVersion: 3
        time: 0
        value: {x: 0, y: 0.03, z: 0}
        inSlope: {x: 0, y: 0, z: 0}
        outSlope: {x: 0, y: 0, z: 0}
        tangentMode: 0
        weightedMode: 0
        inWeight: {x: 0.33333334, y: 0.33333334, z: 0.33333334}
        outWeight: {x: 0.33333334, y: 0.33333334, z: 0.33333334}
      - serializedVersion: 3
        time: 2
        value: {x: 0, y: 0.08, z: 0}
        inSlope: {x: 0, y: 0, z: 0}
        outSlope: {x: 0, y: 0, z: 0}
        tangentMode: 0
        weightedMode: 0
        inWeight: {x: 0.33333334, y: 0.33333334, z: 0.33333334}
        outWeight: {x: 0.33333334, y: 0.33333334, z: 0.33333334}
      - serializedVersion: 3
        time: 4
        value: {x: 0, y: -0.02, z: 0}
        inSlope: {x: 0, y: 0, z: 0}
        outSlope: {x: 0, y: 0, z: 0}
        tangentMode: 0
        weightedMode: 0
        inWeight: {x: 0.33333334, y: 0.33333334, z: 0.33333334}
        outWeight: {x: 0.33333334, y: 0.33333334, z: 0.33333334}
      - serializedVersion: 3
        time: 6.766667
        value: {x: 0, y: 0.03, z: 0}
        inSlope: {x: 0, y: 0, z: 0}
        outSlope: {x: 0, y: 0, z: 0}
        tangentMode: 0
        weightedMode: 0
        inWeight: {x: 0.33333334, y: 0.33333334, z: 0.33333334}
        outWeight: {x: 0.33333334, y: 0.33333334, z: 0.33333334}
      - serializedVersion: 3
        time: 6.7833333
        value: {x: 0, y: 0.03, z: 0}
        inSlope: {x: 0, y: 0, z: 0}
        outSlope: {x: 0, y: 0, z: 0}
        tangentMode: 0
        weightedMode: 0
        inWeight: {x: 0.33333334, y: 0.33333334, z: 0.33333334}
        outWeight: {x: 0.33333334, y: 0.33333334, z: 0.33333334}
      m_PreInfinity: 2
      m_PostInfinity: 2
      m_RotationOrder: 4
    path: SpriteBird
  m_ScaleCurves:
  - curve:
      serializedVersion: 2
      m_Curve:
      - serializedVersion: 3
        time: 0
        value: {x: 1.4312979, y: 1.4312979, z: 1.4312979}
        inSlope: {x: 0, y: 0, z: 0}
        outSlope: {x: 0, y: 0, z: 0}
        tangentMode: 0
        weightedMode: 0
        inWeight: {x: 0.33333334, y: 0.33333334, z: 0.33333334}
        outWeight: {x: 0.33333334, y: 0.33333334, z: 0.33333334}
      - serializedVersion: 3
        time: 6.7833333
        value: {x: 1.4312979, y: 1.4312979, z: 1.4312979}
        inSlope: {x: 0, y: 0, z: 0}
        outSlope: {x: 0, y: 0, z: 0}
        tangentMode: 0
        weightedMode: 0
        inWeight: {x: 0.33333334, y: 0.33333334, z: 0.33333334}
        outWeight: {x: 0.33333334, y: 0.33333334, z: 0.33333334}
      m_PreInfinity: 2
      m_PostInfinity: 2
      m_RotationOrder: 4
    path: 
  m_FloatCurves: []
  m_PPtrCurves:
  - curve:
    - time: 0
      value: {fileID: 5222094523694131177, guid: 969028eb9fa2b2247b09a6f6164aabe1, type: 3}
    - time: 0.16666667
      value: {fileID: 7545526559325096901, guid: 969028eb9fa2b2247b09a6f6164aabe1, type: 3}
    - time: 0.33333334
      value: {fileID: 5222094523694131177, guid: 969028eb9fa2b2247b09a6f6164aabe1, type: 3}
    - time: 0.53333336
      value: {fileID: -5292903698364117478, guid: 969028eb9fa2b2247b09a6f6164aabe1, type: 3}
    - time: 0.75
      value: {fileID: 5222094523694131177, guid: 969028eb9fa2b2247b09a6f6164aabe1, type: 3}
    - time: 0.98333335
      value: {fileID: 7545526559325096901, guid: 969028eb9fa2b2247b09a6f6164aabe1, type: 3}
    - time: 1.15
      value: {fileID: 5222094523694131177, guid: 969028eb9fa2b2247b09a6f6164aabe1, type: 3}
    - time: 1.35
      value: {fileID: -5292903698364117478, guid: 969028eb9fa2b2247b09a6f6164aabe1, type: 3}
    - time: 1.5666667
      value: {fileID: 5222094523694131177, guid: 969028eb9fa2b2247b09a6f6164aabe1, type: 3}
    - time: 1.7833333
      value: {fileID: 7545526559325096901, guid: 969028eb9fa2b2247b09a6f6164aabe1, type: 3}
    - time: 1.95
      value: {fileID: 5222094523694131177, guid: 969028eb9fa2b2247b09a6f6164aabe1, type: 3}
    - time: 2.15
      value: {fileID: -5292903698364117478, guid: 969028eb9fa2b2247b09a6f6164aabe1, type: 3}
    - time: 2.3666666
      value: {fileID: 5222094523694131177, guid: 969028eb9fa2b2247b09a6f6164aabe1, type: 3}
    - time: 2.6
      value: {fileID: 7545526559325096901, guid: 969028eb9fa2b2247b09a6f6164aabe1, type: 3}
    - time: 2.7666667
      value: {fileID: 5222094523694131177, guid: 969028eb9fa2b2247b09a6f6164aabe1, type: 3}
    - time: 2.9666667
      value: {fileID: -5292903698364117478, guid: 969028eb9fa2b2247b09a6f6164aabe1, type: 3}
    - time: 3.1833334
      value: {fileID: 5222094523694131177, guid: 969028eb9fa2b2247b09a6f6164aabe1, type: 3}
    - time: 3.7666667
      value: {fileID: 7545526559325096901, guid: 969028eb9fa2b2247b09a6f6164aabe1, type: 3}
    - time: 3.9333334
      value: {fileID: 5222094523694131177, guid: 969028eb9fa2b2247b09a6f6164aabe1, type: 3}
    - time: 4.133333
      value: {fileID: -5292903698364117478, guid: 969028eb9fa2b2247b09a6f6164aabe1, type: 3}
    - time: 4.35
      value: {fileID: 5222094523694131177, guid: 969028eb9fa2b2247b09a6f6164aabe1, type: 3}
    - time: 4.5833335
      value: {fileID: 7545526559325096901, guid: 969028eb9fa2b2247b09a6f6164aabe1, type: 3}
    - time: 4.75
      value: {fileID: 5222094523694131177, guid: 969028eb9fa2b2247b09a6f6164aabe1, type: 3}
    - time: 4.95
      value: {fileID: -5292903698364117478, guid: 969028eb9fa2b2247b09a6f6164aabe1, type: 3}
    - time: 5.1666665
      value: {fileID: 5222094523694131177, guid: 969028eb9fa2b2247b09a6f6164aabe1, type: 3}
    - time: 5.366667
      value: {fileID: 7545526559325096901, guid: 969028eb9fa2b2247b09a6f6164aabe1, type: 3}
    - time: 5.5333333
      value: {fileID: 5222094523694131177, guid: 969028eb9fa2b2247b09a6f6164aabe1, type: 3}
    - time: 5.733333
      value: {fileID: -5292903698364117478, guid: 969028eb9fa2b2247b09a6f6164aabe1, type: 3}
    - time: 5.95
      value: {fileID: 5222094523694131177, guid: 969028eb9fa2b2247b09a6f6164aabe1, type: 3}
    - time: 6.1833334
      value: {fileID: 7545526559325096901, guid: 969028eb9fa2b2247b09a6f6164aabe1, type: 3}
    - time: 6.35
      value: {fileID: 5222094523694131177, guid: 969028eb9fa2b2247b09a6f6164aabe1, type: 3}
    - time: 6.55
      value: {fileID: -5292903698364117478, guid: 969028eb9fa2b2247b09a6f6164aabe1, type: 3}
    - time: 6.766667
      value: {fileID: 5222094523694131177, guid: 969028eb9fa2b2247b09a6f6164aabe1, type: 3}
    - time: 6.7833333
      value: {fileID: 5222094523694131177, guid: 969028eb9fa2b2247b09a6f6164aabe1, type: 3}
    attribute: m_Sprite
    path: SpriteBird/SpriteWing
    classID: 212
    script: {fileID: 0}
  m_SampleRate: 60
  m_WrapMode: 0
  m_Bounds:
    m_Center: {x: 0, y: 0, z: 0}
    m_Extent: {x: 0, y: 0, z: 0}
  m_ClipBindingConstant:
    genericBindings:
    - serializedVersion: 2
      path: 1375559925
      attribute: 1
      script: {fileID: 0}
      typeID: 4
      customType: 0
      isPPtrCurve: 0
    - serializedVersion: 2
      path: 57373183
      attribute: 0
      script: {fileID: 0}
      typeID: 212
      customType: 23
      isPPtrCurve: 1
    - serializedVersion: 2
      path: 0
      attribute: 3
      script: {fileID: 0}
      typeID: 4
      customType: 0
      isPPtrCurve: 0
    pptrCurveMapping:
    - {fileID: 5222094523694131177, guid: 969028eb9fa2b2247b09a6f6164aabe1, type: 3}
    - {fileID: 7545526559325096901, guid: 969028eb9fa2b2247b09a6f6164aabe1, type: 3}
    - {fileID: 5222094523694131177, guid: 969028eb9fa2b2247b09a6f6164aabe1, type: 3}
    - {fileID: -5292903698364117478, guid: 969028eb9fa2b2247b09a6f6164aabe1, type: 3}
    - {fileID: 5222094523694131177, guid: 969028eb9fa2b2247b09a6f6164aabe1, type: 3}
    - {fileID: 7545526559325096901, guid: 969028eb9fa2b2247b09a6f6164aabe1, type: 3}
    - {fileID: 5222094523694131177, guid: 969028eb9fa2b2247b09a6f6164aabe1, type: 3}
    - {fileID: -5292903698364117478, guid: 969028eb9fa2b2247b09a6f6164aabe1, type: 3}
    - {fileID: 5222094523694131177, guid: 969028eb9fa2b2247b09a6f6164aabe1, type: 3}
    - {fileID: 7545526559325096901, guid: 969028eb9fa2b2247b09a6f6164aabe1, type: 3}
    - {fileID: 5222094523694131177, guid: 969028eb9fa2b2247b09a6f6164aabe1, type: 3}
    - {fileID: -5292903698364117478, guid: 969028eb9fa2b2247b09a6f6164aabe1, type: 3}
    - {fileID: 5222094523694131177, guid: 969028eb9fa2b2247b09a6f6164aabe1, type: 3}
    - {fileID: 7545526559325096901, guid: 969028eb9fa2b2247b09a6f6164aabe1, type: 3}
    - {fileID: 5222094523694131177, guid: 969028eb9fa2b2247b09a6f6164aabe1, type: 3}
    - {fileID: -5292903698364117478, guid: 969028eb9fa2b2247b09a6f6164aabe1, type: 3}
    - {fileID: 5222094523694131177, guid: 969028eb9fa2b2247b09a6f6164aabe1, type: 3}
    - {fileID: 7545526559325096901, guid: 969028eb9fa2b2247b09a6f6164aabe1, type: 3}
    - {fileID: 5222094523694131177, guid: 969028eb9fa2b2247b09a6f6164aabe1, type: 3}
    - {fileID: -5292903698364117478, guid: 969028eb9fa2b2247b09a6f6164aabe1, type: 3}
    - {fileID: 5222094523694131177, guid: 969028eb9fa2b2247b09a6f6164aabe1, type: 3}
    - {fileID: 7545526559325096901, guid: 969028eb9fa2b2247b09a6f6164aabe1, type: 3}
    - {fileID: 5222094523694131177, guid: 969028eb9fa2b2247b09a6f6164aabe1, type: 3}
    - {fileID: -5292903698364117478, guid: 969028eb9fa2b2247b09a6f6164aabe1, type: 3}
    - {fileID: 5222094523694131177, guid: 969028eb9fa2b2247b09a6f6164aabe1, type: 3}
    - {fileID: 7545526559325096901, guid: 969028eb9fa2b2247b09a6f6164aabe1, type: 3}
    - {fileID: 5222094523694131177, guid: 969028eb9fa2b2247b09a6f6164aabe1, type: 3}
    - {fileID: -5292903698364117478, guid: 969028eb9fa2b2247b09a6f6164aabe1, type: 3}
    - {fileID: 5222094523694131177, guid: 969028eb9fa2b2247b09a6f6164aabe1, type: 3}
    - {fileID: 7545526559325096901, guid: 969028eb9fa2b2247b09a6f6164aabe1, type: 3}
    - {fileID: 5222094523694131177, guid: 969028eb9fa2b2247b09a6f6164aabe1, type: 3}
    - {fileID: -5292903698364117478, guid: 969028eb9fa2b2247b09a6f6164aabe1, type: 3}
    - {fileID: 5222094523694131177, guid: 969028eb9fa2b2247b09a6f6164aabe1, type: 3}
    - {fileID: 5222094523694131177, guid: 969028eb9fa2b2247b09a6f6164aabe1, type: 3}
  m_AnimationClipSettings:
    serializedVersion: 2
    m_AdditiveReferencePoseClip: {fileID: 0}
    m_AdditiveReferencePoseTime: 0
    m_StartTime: 0
    m_StopTime: 6.8
    m_OrientationOffsetY: 0
    m_Level: 0
    m_CycleOffset: 0
    m_HasAdditiveReferencePose: 0
    m_LoopTime: 1
    m_LoopBlend: 0
    m_LoopBlendOrientation: 0
    m_LoopBlendPositionY: 0
    m_LoopBlendPositionXZ: 0
    m_KeepOriginalOrientation: 0
    m_KeepOriginalPositionY: 1
    m_KeepOriginalPositionXZ: 0
    m_HeightFromFeet: 0
    m_Mirror: 0
  m_EditorCurves:
  - curve:
      serializedVersion: 2
      m_Curve:
      - serializedVersion: 3
        time: 0
        value: 0
        inSlope: 0
        outSlope: 0
        tangentMode: 136
        weightedMode: 0
        inWeight: 0.33333334
        outWeight: 0.33333334
      - serializedVersion: 3
        time: 2
        value: 0
        inSlope: 0
        outSlope: 0
        tangentMode: 136
        weightedMode: 0
        inWeight: 0.33333334
        outWeight: 0.33333334
      - serializedVersion: 3
        time: 4
        value: 0
        inSlope: 0
        outSlope: 0
        tangentMode: 136
        weightedMode: 0
        inWeight: 0.33333334
        outWeight: 0.33333334
      - serializedVersion: 3
        time: 6.766667
        value: 0
        inSlope: 0
        outSlope: 0
        tangentMode: 136
        weightedMode: 0
        inWeight: 0.33333334
        outWeight: 0.33333334
      - serializedVersion: 3
        time: 6.7833333
        value: 0
        inSlope: 0
        outSlope: 0
        tangentMode: 136
        weightedMode: 0
        inWeight: 0.33333334
        outWeight: 0.33333334
      m_PreInfinity: 2
      m_PostInfinity: 2
      m_RotationOrder: 4
    attribute: m_LocalPosition.x
    path: SpriteBird
    classID: 4
    script: {fileID: 0}
  - curve:
      serializedVersion: 2
      m_Curve:
      - serializedVersion: 3
        time: 0
        value: 0.03
        inSlope: 0
        outSlope: 0
        tangentMode: 136
        weightedMode: 0
        inWeight: 0.33333334
        outWeight: 0.33333334
      - serializedVersion: 3
        time: 2
        value: 0.08
        inSlope: 0
        outSlope: 0
        tangentMode: 136
        weightedMode: 0
        inWeight: 0.33333334
        outWeight: 0.33333334
      - serializedVersion: 3
        time: 4
        value: -0.02
        inSlope: 0
        outSlope: 0
        tangentMode: 136
        weightedMode: 0
        inWeight: 0.33333334
        outWeight: 0.33333334
      - serializedVersion: 3
        time: 6.766667
        value: 0.03
        inSlope: 0
        outSlope: 0
        tangentMode: 136
        weightedMode: 0
        inWeight: 0.33333334
        outWeight: 0.33333334
      - serializedVersion: 3
        time: 6.7833333
        value: 0.03
        inSlope: 0
        outSlope: 0
        tangentMode: 136
        weightedMode: 0
        inWeight: 0.33333334
        outWeight: 0.33333334
      m_PreInfinity: 2
      m_PostInfinity: 2
      m_RotationOrder: 4
    attribute: m_LocalPosition.y
    path: SpriteBird
    classID: 4
    script: {fileID: 0}
  - curve:
      serializedVersion: 2
      m_Curve:
      - serializedVersion: 3
        time: 0
        value: 0
        inSlope: 0
        outSlope: 0
        tangentMode: 136
        weightedMode: 0
        inWeight: 0.33333334
        outWeight: 0.33333334
      - serializedVersion: 3
        time: 2
        value: 0
        inSlope: 0
        outSlope: 0
        tangentMode: 136
        weightedMode: 0
        inWeight: 0.33333334
        outWeight: 0.33333334
      - serializedVersion: 3
        time: 4
        value: 0
        inSlope: 0
        outSlope: 0
        tangentMode: 136
        weightedMode: 0
        inWeight: 0.33333334
        outWeight: 0.33333334
      - serializedVersion: 3
        time: 6.766667
        value: 0
        inSlope: 0
        outSlope: 0
        tangentMode: 136
        weightedMode: 0
        inWeight: 0.33333334
        outWeight: 0.33333334
      - serializedVersion: 3
        time: 6.7833333
        value: 0
        inSlope: 0
        outSlope: 0
        tangentMode: 136
        weightedMode: 0
        inWeight: 0.33333334
        outWeight: 0.33333334
      m_PreInfinity: 2
      m_PostInfinity: 2
      m_RotationOrder: 4
    attribute: m_LocalPosition.z
    path: SpriteBird
    classID: 4
    script: {fileID: 0}
  - curve:
      serializedVersion: 2
      m_Curve:
      - serializedVersion: 3
        time: 0
        value: 1.4312979
        inSlope: 0
        outSlope: 0
        tangentMode: 136
        weightedMode: 0
        inWeight: 0.33333334
        outWeight: 0.33333334
      - serializedVersion: 3
        time: 6.7833333
        value: 1.4312979
        inSlope: 0
        outSlope: 0
        tangentMode: 136
        weightedMode: 0
        inWeight: 0.33333334
        outWeight: 0.33333334
      m_PreInfinity: 2
      m_PostInfinity: 2
      m_RotationOrder: 4
    attribute: m_LocalScale.x
    path: 
    classID: 4
    script: {fileID: 0}
  - curve:
      serializedVersion: 2
      m_Curve:
      - serializedVersion: 3
        time: 0
        value: 1.4312979
        inSlope: 0
        outSlope: 0
        tangentMode: 136
        weightedMode: 0
        inWeight: 0.33333334
        outWeight: 0.33333334
      - serializedVersion: 3
        time: 6.7833333
        value: 1.4312979
        inSlope: 0
        outSlope: 0
        tangentMode: 136
        weightedMode: 0
        inWeight: 0.33333334
        outWeight: 0.33333334
      m_PreInfinity: 2
      m_PostInfinity: 2
      m_RotationOrder: 4
    attribute: m_LocalScale.y
    path: 
    classID: 4
    script: {fileID: 0}
  - curve:
      serializedVersion: 2
      m_Curve:
      - serializedVersion: 3
        time: 0
        value: 1.4312979
        inSlope: 0
        outSlope: 0
        tangentMode: 136
        weightedMode: 0
        inWeight: 0.33333334
        outWeight: 0.33333334
      - serializedVersion: 3
        time: 6.7833333
        value: 1.4312979
        inSlope: 0
        outSlope: 0
        tangentMode: 136
        weightedMode: 0
        inWeight: 0.33333334
        outWeight: 0.33333334
      m_PreInfinity: 2
      m_PostInfinity: 2
      m_RotationOrder: 4
    attribute: m_LocalScale.z
    path: 
    classID: 4
    script: {fileID: 0}
  m_EulerEditorCurves: []
  m_HasGenericRootTransform: 0
  m_HasMotionFloatCurves: 0
  m_Events: []
